<g class="floppy order$colors" viewBox="0 0 110 110" transform="translate($x, $y)">
  <path class="frame" d="M2.5 1.5L4 0h10v.8h46.5L61.7 2H85L86.2.8h9.3l.8-.8h4.2l7 7v101.5L106 110H4l-1.5-1.5zm3.2 97.7v4.8h4.8v-4.8zm93.8 0v4.8h4.8v-4.8z"/>
  <path class="slide" d="M27 0h57v36l-1.5 1.5h-54L27 36zm33.5 6v30h14V6z"/>
  <path class="indent" d="M15 49.5l1-1h78l1 1V110H15z"/>
  <path class="bar" d="M15 110v-6h80v6z"/>
</g>
